module gitlab.com/jarv/cmdchallenge

go 1.20

require (
	github.com/didip/tollbooth v4.0.2+incompatible
	github.com/docker/docker v24.0.4+incompatible
	github.com/go-logr/logr v1.2.4
	github.com/go-logr/zerologr v1.2.3
	github.com/google/go-cmp v0.5.9
	github.com/gorilla/handlers v1.5.1
	github.com/gorilla/mux v1.8.0
	github.com/mattn/go-sqlite3 v1.14.17
	github.com/prometheus/client_golang v1.16.0
	github.com/rs/zerolog v1.29.1
	github.com/stretchr/testify v1.8.4
	golang.org/x/exp v0.0.0-20230626212559-97b1e661b5df
	gopkg.in/yaml.v3 v3.0.1
)

require (
	github.com/Azure/go-ansiterm v0.0.0-20210617225240-d185dfc1b5a1 // indirect
	github.com/Microsoft/go-winio v0.6.1 // indirect
	github.com/beorn7/perks v1.0.1 // indirect
	github.com/cespare/xxhash/v2 v2.2.0 // indirect
	github.com/davecgh/go-spew v1.1.1 // indirect
	github.com/docker/distribution v2.8.2+incompatible // indirect
	github.com/docker/go-connections v0.4.0 // indirect
	github.com/docker/go-units v0.5.0 // indirect
	github.com/felixge/httpsnoop v1.0.3 // indirect
	github.com/gogo/protobuf v1.3.2 // indirect
	github.com/golang/protobuf v1.5.3 // indirect
	github.com/kr/text v0.2.0 // indirect
	github.com/mattn/go-colorable v0.1.13 // indirect
	github.com/mattn/go-isatty v0.0.19 // indirect
	github.com/matttproud/golang_protobuf_extensions v1.0.4 // indirect
	github.com/moby/term v0.0.0-20210610120745-9d4ed1856297 // indirect
	github.com/morikuni/aec v1.0.0 // indirect
	github.com/opencontainers/go-digest v1.0.0 // indirect
	github.com/opencontainers/image-spec v1.1.0-rc4 // indirect
	github.com/patrickmn/go-cache v2.1.0+incompatible // indirect
	github.com/pkg/errors v0.9.1 // indirect
	github.com/pmezard/go-difflib v1.0.0 // indirect
	github.com/prometheus/client_model v0.4.0 // indirect
	github.com/prometheus/common v0.44.0 // indirect
	github.com/prometheus/procfs v0.11.0 // indirect
	github.com/rogpeppe/go-internal v1.11.0 // indirect
	github.com/sirupsen/logrus v1.9.3 // indirect
	github.com/stretchr/objx v0.5.0 // indirect
	golang.org/x/mod v0.12.0 // indirect
	golang.org/x/net v0.12.0 // indirect
	golang.org/x/sys v0.10.0 // indirect
	golang.org/x/time v0.3.0 // indirect
	golang.org/x/tools v0.11.0 // indirect
	google.golang.org/protobuf v1.31.0 // indirect
	gotest.tools/v3 v3.0.3 // indirect
)
